animation{
  name = "falling",
  src_image = "enemies/trillium_enemies/dandelion_imp.png",
  frame_delay = 70,
  directions = {
    { x = 0, y = 32, frame_width = 32, frame_height = 32, origin_x = 16, origin_y = 29, num_frames = 6, num_columns = 4 },
  },
}
animation{
  name = "floating",
  src_image = "enemies/trillium_enemies/dandelion_imp.png",
  frame_delay = 400,
  frame_to_loop_on = 0,
  directions = {
    { x = 96, y = 104, frame_width = 32, frame_height = 40, origin_x = 16, origin_y = 37, num_frames = 2 },
  },
}
animation{
  name = "hurt",
  src_image = "enemies/trillium_enemies/dandelion_imp.png",
  frame_delay = 60,
  frame_to_loop_on = 0,
  directions = {
    { x = 64, y = 64, frame_width = 32, frame_height = 32, origin_x = 16, origin_y = 29, num_frames = 2 },
  },
}
animation{
  name = "jumping",
  src_image = "enemies/trillium_enemies/dandelion_imp.png",
  frame_delay = 70,
  directions = {
    { x = 0, y = 104, frame_width = 32, frame_height = 40, origin_x = 16, origin_y = 37, num_frames = 5 },
  },
}
animation{
  name = "stopped",
  src_image = "enemies/trillium_enemies/dandelion_imp.png",
  directions = {
    { x = 0, y = 0, frame_width = 32, frame_height = 32, origin_x = 16, origin_y = 29 },
  },
}
animation{
  name = "walking",
  src_image = "enemies/trillium_enemies/dandelion_imp.png",
  frame_delay = 140,
  frame_to_loop_on = 0,
  directions = {
    { x = 0, y = 0, frame_width = 32, frame_height = 32, origin_x = 16, origin_y = 29, num_frames = 4 },
  },
}
