animation{
  name = "stopped",
  src_image = "world_objects/barrel.png",
  directions = {
    { x = 64, y = 0, frame_width = 32, frame_height = 32, origin_x = 16, origin_y = 29 },
  },
}
animation{
  name = "breaking",
  src_image = "world_objects/barrel.png",
  frame_delay = 50,
  directions = {
    { x = 64, y = 0, frame_width = 32, frame_height = 32, origin_x = 16, origin_y = 29 },
    { x = 0, y = 48, frame_width = 48, frame_height = 48, origin_x = 24, origin_y = 45, num_frames = 6, num_columns = 3 },
  },
}
