animation{
  name = "light",
  src_image = "lights/neon_signs.png",
  frame_delay = 30,
  frame_to_loop_on = 0,
  directions = {
    { x = 96, y = 32, frame_width = 32, frame_height = 32, origin_x = 16, origin_y = 21 },
  },
}
